EESchema Schematic File Version 4
EELAYER 30 0
EELAYER END
$Descr A4 11693 8268
encoding utf-8
Sheet 1 1
Title ""
Date ""
Rev ""
Comp ""
Comment1 ""
Comment2 ""
Comment3 ""
Comment4 ""
$EndDescr
$Comp
L Interface_USB:ADUM3160 U1
U 1 1 5F72E34F
P 3750 2550
F 0 "U1" H 3750 3331 50  0000 C CNN
F 1 "ADUM3160" H 3750 3240 50  0000 C CNN
F 2 "Package_SO:SOIC-16W_7.5x10.3mm_P1.27mm" H 3750 1850 50  0001 C CNN
F 3 "https://www.analog.com/media/en/technical-documentation/data-sheets/ADuM3160.pdf" H 3550 2550 50  0001 C CNN
	1    3750 2550
	1    0    0    -1  
$EndComp
$Comp
L Device:R R2
U 1 1 5F7307A1
P 2650 2700
F 0 "R2" H 2650 2800 50  0000 C CNN
F 1 "22" H 2800 2800 50  0000 C CNN
F 2 "Resistor_SMD:R_1206_3216Metric_Pad1.42x1.75mm_HandSolder" H 2650 2630 50  0001 C CNN
F 3 "~" V 2650 2700 50  0001 C CNN
	1    2650 2700
	1    0    0    -1  
$EndComp
$Comp
L Device:R R1
U 1 1 5F730153
P 2650 2500
F 0 "R1" H 2650 2600 50  0000 C CNN
F 1 "22" H 2800 2600 50  0000 C CNN
F 2 "Resistor_SMD:R_1206_3216Metric_Pad1.42x1.75mm_HandSolder" H 2650 2430 50  0001 C CNN
F 3 "~" V 2650 2500 50  0001 C CNN
	1    2650 2500
	1    0    0    -1  
$EndComp
Wire Wire Line
	2250 2550 2250 2500
Wire Wire Line
	2250 2500 2500 2500
Wire Wire Line
	2250 2650 2250 2700
Wire Wire Line
	2250 2700 2500 2700
Wire Wire Line
	2800 2500 2950 2500
Wire Wire Line
	2950 2500 2950 2450
Wire Wire Line
	2950 2450 3250 2450
Wire Wire Line
	2800 2700 3000 2700
Wire Wire Line
	3000 2700 3000 2550
Wire Wire Line
	3000 2550 3250 2550
Wire Wire Line
	2250 2350 2450 2350
Wire Wire Line
	2450 2350 2450 2300
Wire Wire Line
	1850 2950 1850 3050
Wire Wire Line
	1850 3050 1950 3050
Wire Wire Line
	1950 3050 1950 2950
Wire Wire Line
	1950 3050 2100 3050
Connection ~ 1950 3050
$Comp
L Connector:USB_A J2
U 1 1 5F73B76D
P 5450 2550
F 0 "J2" H 5220 2539 50  0000 R CNN
F 1 "USB_A" H 5220 2448 50  0000 R CNN
F 2 "Connector_USB:USB_A_Stewart_SS-52100-001_Horizontal" H 5600 2500 50  0001 C CNN
F 3 " ~" H 5600 2500 50  0001 C CNN
	1    5450 2550
	-1   0    0    -1  
$EndComp
$Comp
L Device:R R3
U 1 1 5F7412B2
P 4750 2500
F 0 "R3" H 4750 2600 50  0000 C CNN
F 1 "22" H 4900 2600 50  0000 C CNN
F 2 "Resistor_SMD:R_1206_3216Metric_Pad1.42x1.75mm_HandSolder" H 4750 2430 50  0001 C CNN
F 3 "~" V 4750 2500 50  0001 C CNN
	1    4750 2500
	1    0    0    -1  
$EndComp
Wire Wire Line
	4250 2550 4550 2550
Wire Wire Line
	4900 2500 5050 2500
Wire Wire Line
	5050 2500 5050 2550
Wire Wire Line
	5050 2550 5150 2550
Wire Wire Line
	4900 2700 5050 2700
Wire Wire Line
	5050 2700 5050 2650
Wire Wire Line
	5050 2650 5150 2650
Wire Wire Line
	4600 2500 4550 2500
Wire Wire Line
	4550 2500 4550 2450
Wire Wire Line
	4550 2450 4250 2450
Wire Wire Line
	5150 2350 5050 2350
Wire Wire Line
	5050 2350 5050 2300
Wire Wire Line
	5300 3050 5300 3000
Wire Wire Line
	5300 3000 5450 3000
Wire Wire Line
	5450 3000 5450 2950
Wire Wire Line
	5450 3000 5550 3000
Wire Wire Line
	5550 3000 5550 2950
Connection ~ 5450 3000
Wire Wire Line
	3450 3250 3450 3200
Wire Wire Line
	3450 3200 3550 3200
Wire Wire Line
	3650 3200 3650 3150
Wire Wire Line
	3550 3200 3550 3150
Connection ~ 3550 3200
Wire Wire Line
	3550 3200 3650 3200
Wire Wire Line
	3850 3150 3850 3200
Wire Wire Line
	3850 3200 3950 3200
Wire Wire Line
	4050 3200 4050 3250
Wire Wire Line
	3950 3200 3950 3150
Connection ~ 3950 3200
Wire Wire Line
	3950 3200 4050 3200
$Comp
L Device:C C2
U 1 1 5F750CE6
P 1700 5900
F 0 "C2" H 1815 5946 50  0000 L CNN
F 1 "10uF" H 1815 5855 50  0000 L CNN
F 2 "Capacitor_SMD:C_0805_2012Metric_Pad1.15x1.40mm_HandSolder" H 1738 5750 50  0001 C CNN
F 3 "~" H 1700 5900 50  0001 C CNN
	1    1700 5900
	1    0    0    -1  
$EndComp
$Comp
L Device:C C6
U 1 1 5F7514FE
P 3750 5900
F 0 "C6" H 3865 5946 50  0000 L CNN
F 1 "10uF" H 3865 5855 50  0000 L CNN
F 2 "Capacitor_SMD:C_0805_2012Metric_Pad1.15x1.40mm_HandSolder" H 3788 5750 50  0001 C CNN
F 3 "~" H 3750 5900 50  0001 C CNN
	1    3750 5900
	1    0    0    -1  
$EndComp
$Comp
L Device:R R5
U 1 1 5F752563
P 4150 5900
F 0 "R5" V 4104 5970 50  0000 L CNN
F 1 "1k" V 4195 5970 50  0000 L CNN
F 2 "Resistor_SMD:R_1206_3216Metric_Pad1.42x1.75mm_HandSolder" H 4150 5830 50  0001 C CNN
F 3 "~" V 4150 5900 50  0001 C CNN
	1    4150 5900
	0    1    1    0   
$EndComp
Wire Wire Line
	1700 6200 1700 6050
Wire Wire Line
	1700 5750 2350 5750
Wire Wire Line
	2350 5750 2350 5950
Wire Wire Line
	2350 5950 2450 5950
Wire Wire Line
	2450 6050 2200 6050
Wire Wire Line
	2200 6050 2200 6200
Wire Wire Line
	3250 5950 3550 5950
Wire Wire Line
	3550 5950 3550 5750
Wire Wire Line
	3550 5750 3750 5750
Connection ~ 3750 5750
Wire Wire Line
	3250 6050 3450 6050
Wire Wire Line
	3450 6050 3450 6200
Wire Wire Line
	3750 6050 3750 6200
Wire Wire Line
	4150 6050 4150 6200
Wire Wire Line
	1700 5750 1700 5600
Connection ~ 1700 5750
$Comp
L Device:C C1
U 1 1 5F75DD4A
P 1300 4300
F 0 "C1" H 1415 4346 50  0000 L CNN
F 1 "0.1uF" H 1415 4255 50  0000 L CNN
F 2 "Capacitor_SMD:C_0805_2012Metric_Pad1.15x1.40mm_HandSolder" H 1338 4150 50  0001 C CNN
F 3 "~" H 1300 4300 50  0001 C CNN
	1    1300 4300
	1    0    0    -1  
$EndComp
$Comp
L Device:C C3
U 1 1 5F75F939
P 1800 4300
F 0 "C3" H 1915 4346 50  0000 L CNN
F 1 "0.1uF" H 1915 4255 50  0000 L CNN
F 2 "Capacitor_SMD:C_0805_2012Metric_Pad1.15x1.40mm_HandSolder" H 1838 4150 50  0001 C CNN
F 3 "~" H 1800 4300 50  0001 C CNN
	1    1800 4300
	1    0    0    -1  
$EndComp
$Comp
L Device:C C4
U 1 1 5F760FD5
P 2350 4300
F 0 "C4" H 2465 4346 50  0000 L CNN
F 1 "0.1uF" H 2465 4255 50  0000 L CNN
F 2 "Capacitor_SMD:C_0805_2012Metric_Pad1.15x1.40mm_HandSolder" H 2388 4150 50  0001 C CNN
F 3 "~" H 2350 4300 50  0001 C CNN
	1    2350 4300
	1    0    0    -1  
$EndComp
$Comp
L Device:C C5
U 1 1 5F762253
P 2850 4300
F 0 "C5" H 2965 4346 50  0000 L CNN
F 1 "0.1uF" H 2965 4255 50  0000 L CNN
F 2 "Capacitor_SMD:C_0805_2012Metric_Pad1.15x1.40mm_HandSolder" H 2888 4150 50  0001 C CNN
F 3 "~" H 2850 4300 50  0001 C CNN
	1    2850 4300
	1    0    0    -1  
$EndComp
$Comp
L power:GND #PWR06
U 1 1 5F782E73
P 1800 4550
F 0 "#PWR06" H 1800 4300 50  0001 C CNN
F 1 "GND" H 1805 4377 50  0000 C CNN
F 2 "" H 1800 4550 50  0001 C CNN
F 3 "" H 1800 4550 50  0001 C CNN
	1    1800 4550
	1    0    0    -1  
$EndComp
$Comp
L power:GND #PWR02
U 1 1 5F7834DF
P 1300 4550
F 0 "#PWR02" H 1300 4300 50  0001 C CNN
F 1 "GND" H 1305 4377 50  0000 C CNN
F 2 "" H 1300 4550 50  0001 C CNN
F 3 "" H 1300 4550 50  0001 C CNN
	1    1300 4550
	1    0    0    -1  
$EndComp
$Comp
L Connector:USB_A J1
U 1 1 5F73172C
P 1950 2550
F 0 "J1" H 2007 3017 50  0000 C CNN
F 1 "USB_A" H 2007 2926 50  0000 C CNN
F 2 "Connector_USB:USB_A_Stewart_SS-52100-001_Horizontal" H 2100 2500 50  0001 C CNN
F 3 " ~" H 2100 2500 50  0001 C CNN
	1    1950 2550
	1    0    0    -1  
$EndComp
$Comp
L power:GND #PWR017
U 1 1 5F78D047
P 3450 3250
F 0 "#PWR017" H 3450 3000 50  0001 C CNN
F 1 "GND" H 3455 3077 50  0000 C CNN
F 2 "" H 3450 3250 50  0001 C CNN
F 3 "" H 3450 3250 50  0001 C CNN
	1    3450 3250
	1    0    0    -1  
$EndComp
$Comp
L power:GND #PWR07
U 1 1 5F78D7F0
P 2100 3100
F 0 "#PWR07" H 2100 2850 50  0001 C CNN
F 1 "GND" H 2105 2927 50  0000 C CNN
F 2 "" H 2100 3100 50  0001 C CNN
F 3 "" H 2100 3100 50  0001 C CNN
	1    2100 3100
	1    0    0    -1  
$EndComp
Wire Wire Line
	2100 3100 2100 3050
Wire Wire Line
	3750 5750 4150 5750
$Comp
L power:GND #PWR04
U 1 1 5F793CCD
P 1700 6200
F 0 "#PWR04" H 1700 5950 50  0001 C CNN
F 1 "GND" H 1705 6027 50  0000 C CNN
F 2 "" H 1700 6200 50  0001 C CNN
F 3 "" H 1700 6200 50  0001 C CNN
	1    1700 6200
	1    0    0    -1  
$EndComp
$Comp
L power:GND #PWR08
U 1 1 5F794335
P 2200 6200
F 0 "#PWR08" H 2200 5950 50  0001 C CNN
F 1 "GND" H 2205 6027 50  0000 C CNN
F 2 "" H 2200 6200 50  0001 C CNN
F 3 "" H 2200 6200 50  0001 C CNN
	1    2200 6200
	1    0    0    -1  
$EndComp
$Comp
L power:VCC #PWR03
U 1 1 5F794A99
P 1700 5600
F 0 "#PWR03" H 1700 5450 50  0001 C CNN
F 1 "VCC" H 1717 5773 50  0000 C CNN
F 2 "" H 1700 5600 50  0001 C CNN
F 3 "" H 1700 5600 50  0001 C CNN
	1    1700 5600
	1    0    0    -1  
$EndComp
$Comp
L power:VCC #PWR01
U 1 1 5F79885F
P 1300 4050
F 0 "#PWR01" H 1300 3900 50  0001 C CNN
F 1 "VCC" H 1317 4223 50  0000 C CNN
F 2 "" H 1300 4050 50  0001 C CNN
F 3 "" H 1300 4050 50  0001 C CNN
	1    1300 4050
	1    0    0    -1  
$EndComp
Wire Wire Line
	1300 4150 1300 4050
Wire Wire Line
	1800 4150 1800 4050
Wire Wire Line
	2350 4150 2350 4050
Wire Wire Line
	2850 4150 2850 4050
Wire Wire Line
	2850 4550 2850 4450
Wire Wire Line
	2350 4550 2350 4450
Wire Wire Line
	1800 4550 1800 4450
Wire Wire Line
	1300 4550 1300 4450
Wire Wire Line
	3250 2650 3100 2650
Wire Wire Line
	3100 2650 3100 2750
Wire Wire Line
	3100 2750 3250 2750
Connection ~ 3100 2750
Wire Wire Line
	2850 2950 2850 3000
Wire Wire Line
	2850 3000 3100 3000
Wire Wire Line
	3100 2750 3100 3000
Wire Wire Line
	3250 2150 3100 2150
Wire Wire Line
	3100 2150 3100 2100
Wire Wire Line
	4250 2750 4300 2750
Wire Wire Line
	4300 2750 4300 2900
Wire Wire Line
	4300 2900 4400 2900
Wire Wire Line
	3650 1950 3400 1950
Wire Wire Line
	3400 1950 3400 1800
$Comp
L power:VCC #PWR016
U 1 1 5F7B8F19
P 3400 1800
F 0 "#PWR016" H 3400 1650 50  0001 C CNN
F 1 "VCC" H 3417 1973 50  0000 C CNN
F 2 "" H 3400 1800 50  0001 C CNN
F 3 "" H 3400 1800 50  0001 C CNN
	1    3400 1800
	1    0    0    -1  
$EndComp
Wire Wire Line
	3850 1950 4100 1950
Wire Wire Line
	4100 1950 4100 1800
Wire Wire Line
	4250 2150 4400 2150
Wire Wire Line
	4400 2150 4400 2100
Wire Wire Line
	4250 2250 4400 2250
Wire Wire Line
	4400 2250 4400 2150
Connection ~ 4400 2150
$Comp
L Device:Jumper JP1
U 1 1 5F7C1C7F
P 5500 4300
F 0 "JP1" H 5500 4564 50  0000 C CNN
F 1 "Jumper" H 5500 4473 50  0000 C CNN
F 2 "Connector_PinHeader_2.54mm:PinHeader_1x02_P2.54mm_Vertical" H 5500 4300 50  0001 C CNN
F 3 "~" H 5500 4300 50  0001 C CNN
	1    5500 4300
	0    1    1    0   
$EndComp
$Comp
L Device:Jumper JP2
U 1 1 5F7C29FD
P 5500 5550
F 0 "JP2" H 5500 5814 50  0000 C CNN
F 1 "Jumper" H 5500 5723 50  0000 C CNN
F 2 "Connector_PinHeader_2.54mm:PinHeader_1x02_P2.54mm_Vertical" H 5500 5550 50  0001 C CNN
F 3 "~" H 5500 5550 50  0001 C CNN
	1    5500 5550
	0    1    1    0   
$EndComp
Wire Wire Line
	5400 3950 5400 4000
Wire Wire Line
	5400 4000 5500 4000
Wire Wire Line
	5400 4650 5400 4600
Wire Wire Line
	5400 4600 5500 4600
$Comp
L power:GND #PWR031
U 1 1 5F7E2892
P 5400 5900
F 0 "#PWR031" H 5400 5650 50  0001 C CNN
F 1 "GND" H 5405 5727 50  0000 C CNN
F 2 "" H 5400 5900 50  0001 C CNN
F 3 "" H 5400 5900 50  0001 C CNN
	1    5400 5900
	1    0    0    -1  
$EndComp
$Comp
L power:VCC #PWR030
U 1 1 5F7E2CD0
P 5400 5200
F 0 "#PWR030" H 5400 5050 50  0001 C CNN
F 1 "VCC" H 5417 5373 50  0000 C CNN
F 2 "" H 5400 5200 50  0001 C CNN
F 3 "" H 5400 5200 50  0001 C CNN
	1    5400 5200
	1    0    0    -1  
$EndComp
Wire Wire Line
	5400 5200 5400 5250
Wire Wire Line
	5400 5250 5500 5250
Wire Wire Line
	5400 5900 5400 5850
Wire Wire Line
	5400 5850 5500 5850
$Comp
L power:VCC #PWR0101
U 1 1 5F81A78E
P 2450 2300
F 0 "#PWR0101" H 2450 2150 50  0001 C CNN
F 1 "VCC" H 2467 2473 50  0000 C CNN
F 2 "" H 2450 2300 50  0001 C CNN
F 3 "" H 2450 2300 50  0001 C CNN
	1    2450 2300
	1    0    0    -1  
$EndComp
$Comp
L power:GNDA #PWR0102
U 1 1 5F81B5B2
P 4050 3250
F 0 "#PWR0102" H 4050 3000 50  0001 C CNN
F 1 "GNDA" H 4055 3077 50  0000 C CNN
F 2 "" H 4050 3250 50  0001 C CNN
F 3 "" H 4050 3250 50  0001 C CNN
	1    4050 3250
	1    0    0    -1  
$EndComp
$Comp
L power:GNDA #PWR0103
U 1 1 5F81BD1D
P 5300 3050
F 0 "#PWR0103" H 5300 2800 50  0001 C CNN
F 1 "GNDA" H 5305 2877 50  0000 C CNN
F 2 "" H 5300 3050 50  0001 C CNN
F 3 "" H 5300 3050 50  0001 C CNN
	1    5300 3050
	1    0    0    -1  
$EndComp
$Comp
L power:GNDA #PWR0104
U 1 1 5F829647
P 2350 4550
F 0 "#PWR0104" H 2350 4300 50  0001 C CNN
F 1 "GNDA" H 2355 4377 50  0000 C CNN
F 2 "" H 2350 4550 50  0001 C CNN
F 3 "" H 2350 4550 50  0001 C CNN
	1    2350 4550
	1    0    0    -1  
$EndComp
$Comp
L power:GNDA #PWR0105
U 1 1 5F829F72
P 2850 4550
F 0 "#PWR0105" H 2850 4300 50  0001 C CNN
F 1 "GNDA" H 2855 4377 50  0000 C CNN
F 2 "" H 2850 4550 50  0001 C CNN
F 3 "" H 2850 4550 50  0001 C CNN
	1    2850 4550
	1    0    0    -1  
$EndComp
$Comp
L power:GNDA #PWR0106
U 1 1 5F82D005
P 3450 6200
F 0 "#PWR0106" H 3450 5950 50  0001 C CNN
F 1 "GNDA" H 3455 6027 50  0000 C CNN
F 2 "" H 3450 6200 50  0001 C CNN
F 3 "" H 3450 6200 50  0001 C CNN
	1    3450 6200
	1    0    0    -1  
$EndComp
$Comp
L power:GNDA #PWR0107
U 1 1 5F82D965
P 3750 6200
F 0 "#PWR0107" H 3750 5950 50  0001 C CNN
F 1 "GNDA" H 3755 6027 50  0000 C CNN
F 2 "" H 3750 6200 50  0001 C CNN
F 3 "" H 3750 6200 50  0001 C CNN
	1    3750 6200
	1    0    0    -1  
$EndComp
$Comp
L power:GNDA #PWR0108
U 1 1 5F82E53F
P 4150 6200
F 0 "#PWR0108" H 4150 5950 50  0001 C CNN
F 1 "GNDA" H 4155 6027 50  0000 C CNN
F 2 "" H 4150 6200 50  0001 C CNN
F 3 "" H 4150 6200 50  0001 C CNN
	1    4150 6200
	1    0    0    -1  
$EndComp
$Comp
L power:GNDA #PWR0109
U 1 1 5F831459
P 5400 4650
F 0 "#PWR0109" H 5400 4400 50  0001 C CNN
F 1 "GNDA" H 5405 4477 50  0000 C CNN
F 2 "" H 5400 4650 50  0001 C CNN
F 3 "" H 5400 4650 50  0001 C CNN
	1    5400 4650
	1    0    0    -1  
$EndComp
$Comp
L power:+5V #PWR0110
U 1 1 5F831C8A
P 5050 2300
F 0 "#PWR0110" H 5050 2150 50  0001 C CNN
F 1 "+5V" H 5065 2473 50  0000 C CNN
F 2 "" H 5050 2300 50  0001 C CNN
F 3 "" H 5050 2300 50  0001 C CNN
	1    5050 2300
	1    0    0    -1  
$EndComp
$Comp
L power:+5V #PWR0111
U 1 1 5F8326B7
P 4100 1800
F 0 "#PWR0111" H 4100 1650 50  0001 C CNN
F 1 "+5V" H 4115 1973 50  0000 C CNN
F 2 "" H 4100 1800 50  0001 C CNN
F 3 "" H 4100 1800 50  0001 C CNN
	1    4100 1800
	1    0    0    -1  
$EndComp
$Comp
L power:+5V #PWR0112
U 1 1 5F832FAE
P 5400 3950
F 0 "#PWR0112" H 5400 3800 50  0001 C CNN
F 1 "+5V" H 5415 4123 50  0000 C CNN
F 2 "" H 5400 3950 50  0001 C CNN
F 3 "" H 5400 3950 50  0001 C CNN
	1    5400 3950
	1    0    0    -1  
$EndComp
$Comp
L power:+5V #PWR0113
U 1 1 5F833809
P 2850 4050
F 0 "#PWR0113" H 2850 3900 50  0001 C CNN
F 1 "+5V" H 2865 4223 50  0000 C CNN
F 2 "" H 2850 4050 50  0001 C CNN
F 3 "" H 2850 4050 50  0001 C CNN
	1    2850 4050
	1    0    0    -1  
$EndComp
$Comp
L power:+5V #PWR0114
U 1 1 5F833FDB
P 4150 5600
F 0 "#PWR0114" H 4150 5450 50  0001 C CNN
F 1 "+5V" H 4165 5773 50  0000 C CNN
F 2 "" H 4150 5600 50  0001 C CNN
F 3 "" H 4150 5600 50  0001 C CNN
	1    4150 5600
	1    0    0    -1  
$EndComp
Connection ~ 4150 5750
Wire Wire Line
	4150 5750 4150 5600
$Comp
L power:VCCQ #PWR0115
U 1 1 5F8498FF
P 1800 4050
F 0 "#PWR0115" H 1800 3900 50  0001 C CNN
F 1 "VCCQ" H 1817 4223 50  0000 C CNN
F 2 "" H 1800 4050 50  0001 C CNN
F 3 "" H 1800 4050 50  0001 C CNN
	1    1800 4050
	1    0    0    -1  
$EndComp
$Comp
L power:VCCQ #PWR0116
U 1 1 5F84A260
P 2850 2950
F 0 "#PWR0116" H 2850 2800 50  0001 C CNN
F 1 "VCCQ" H 2867 3123 50  0000 C CNN
F 2 "" H 2850 2950 50  0001 C CNN
F 3 "" H 2850 2950 50  0001 C CNN
	1    2850 2950
	1    0    0    -1  
$EndComp
$Comp
L power:VCCQ #PWR0117
U 1 1 5F8575D6
P 3100 2100
F 0 "#PWR0117" H 3100 1950 50  0001 C CNN
F 1 "VCCQ" H 3117 2273 50  0000 C CNN
F 2 "" H 3100 2100 50  0001 C CNN
F 3 "" H 3100 2100 50  0001 C CNN
	1    3100 2100
	1    0    0    -1  
$EndComp
$Comp
L power:VSSA #PWR0118
U 1 1 5F85D053
P 2350 4050
F 0 "#PWR0118" H 2350 3900 50  0001 C CNN
F 1 "VSSA" H 2367 4223 50  0000 C CNN
F 2 "" H 2350 4050 50  0001 C CNN
F 3 "" H 2350 4050 50  0001 C CNN
	1    2350 4050
	1    0    0    -1  
$EndComp
$Comp
L power:VSSA #PWR0119
U 1 1 5F85DD6D
P 4400 2100
F 0 "#PWR0119" H 4400 1950 50  0001 C CNN
F 1 "VSSA" H 4417 2273 50  0000 C CNN
F 2 "" H 4400 2100 50  0001 C CNN
F 3 "" H 4400 2100 50  0001 C CNN
	1    4400 2100
	1    0    0    -1  
$EndComp
$Comp
L power:VSSA #PWR0120
U 1 1 5F85EF43
P 4400 2850
F 0 "#PWR0120" H 4400 2700 50  0001 C CNN
F 1 "VSSA" H 4417 3023 50  0000 C CNN
F 2 "" H 4400 2850 50  0001 C CNN
F 3 "" H 4400 2850 50  0001 C CNN
	1    4400 2850
	1    0    0    -1  
$EndComp
Wire Wire Line
	4400 2900 4400 2850
Wire Wire Line
	4550 2700 4600 2700
Wire Wire Line
	4550 2550 4550 2700
$Comp
L Device:R R4
U 1 1 5F7412AC
P 4750 2700
F 0 "R4" H 4750 2800 50  0000 C CNN
F 1 "22" H 4900 2800 50  0000 C CNN
F 2 "Resistor_SMD:R_1206_3216Metric_Pad1.42x1.75mm_HandSolder" H 4750 2630 50  0001 C CNN
F 3 "~" V 4750 2700 50  0001 C CNN
	1    4750 2700
	1    0    0    -1  
$EndComp
$Comp
L usb_isolator:AM1L-0505SH30-NZ U2
U 1 1 5F8A9125
P 2550 5750
F 0 "U2" H 2850 5915 50  0000 C CNN
F 1 "AM1L-0505SH30-NZ" H 2850 5824 50  0000 C CNN
F 2 "isolator:AM1L-0505SH30-NZ" H 2850 5850 50  0001 C CNN
F 3 "" H 2850 5850 50  0001 C CNN
	1    2550 5750
	1    0    0    -1  
$EndComp
$EndSCHEMATC
